How-to-Bang-Your-Head-Against-the-Wall: A guide to general data manipulations in R
…
The col_only() is a function that outputs the necessary formats required by the col_type() argument in various tidyverse read verbs, i.e.,, all the read sections below except for the Access section. Although this seems as an extra step, I believe it is a best practice to learn as you do not want to risk perpetuating an error that stems from the very beginning of your analysis.

Reading from Excel

library(readxl)
read_excel(file.path("RGuideExamples", "DataExample_SLS.xlsx"), sheet = "TowInfo")

## # A tibble: 3,163 x 13
##    Date                Station   Tow Time     Tide BottomDepth CableOut Duration
##    <dttm>                <dbl> <dbl> <chr>   <dbl>       <dbl>    <dbl>    <dbl>
##  1 2009-01-05 00:00:00     902     1 1899-1~     4          26      110       10
##  2 2009-01-05 00:00:00     906     1 1899-1~     2          39      140       10
##  3 2009-01-05 00:00:00     910     1 1899-1~     4          40      155       10
##  4 2009-01-05 00:00:00     912     1 1899-1~     4          36      140       10
##  5 2009-01-05 00:00:00     914     1 1899-1~     4          35      110       10
##  6 2009-01-05 00:00:00     915     1 1899-1~     4          21       90       10
##  7 2009-01-05 00:00:00     918     1 1899-1~     4          25       90       10
##  8 2009-01-05 00:00:00     919     1 1899-1~     2          17       75       10
##  9 2009-01-06 00:00:00     703     1 1899-1~     2          10       60       10
## 10 2009-01-06 00:00:00     704     1 1899-1~     2          32      125       10
## # ... with 3,153 more rows, and 5 more variables: NetMeterSerial <dbl>,
## #   NetMeterStart <dbl>, NetMeterEnd <dbl>, NetMeterCheck <dbl>, Comments <chr>

# Note that sheet should be specified here. This makes it also really easy to loop/apply this read across many sheets

Reading from text

Data in a text file is separated by some marker, commonly a comma or tab. This means that a csv file is a specific variant of a text file.

library(readr)
# Delimiter here = comma
read_delim(file.path("RGuideExamples", "WaterInfo_SLS.csv"))

## # A tibble: 3,163 x 11
##    Survey Date       Station  Temp TopEC BottomEC Secchi Turbidity Lat   Long 
##     <dbl> <date>       <dbl> <dbl> <dbl>    <dbl>  <dbl>     <dbl> <chr> <chr>
##  1      1 2009-01-05     902   7.4   858      777     92        NA <NA>  <NA> 
##  2      1 2009-01-05     906   8     469      478    129        NA <NA>  <NA> 
##  3      1 2009-01-05     910   8.2   548      587     77        NA <NA>  <NA> 
##  4      1 2009-01-05     912   8.2   997      991     63        NA <NA>  <NA> 
##  5      1 2009-01-05     914   7.8   604      601    157        NA <NA>  <NA> 
##  6      1 2009-01-05     915   7.5   803      801    140        NA <NA>  <NA> 
##  7      1 2009-01-05     918   7.6   787      758    154        NA <NA>  <NA> 
##  8      1 2009-01-05     919   7.7   263      265    194        NA <NA>  <NA> 
##  9      1 2009-01-06     703   9.2  1966     7230     70        NA <NA>  <NA> 
## 10      1 2009-01-06     704   9.3  3604     8030     40        NA <NA>  <NA> 
## # ... with 3,153 more rows, and 1 more variable: Comments <chr>

# Delimiter here = tab
read_delim(file.path("RGuideExamples", "WaterInfo_SLS.txt"))

## # A tibble: 3,163 x 11
##    Survey Date     Station  Temp TopEC BottomEC Secchi Turbidity Lat   Long 
##     <dbl> <chr>      <dbl> <dbl> <dbl>    <dbl>  <dbl>     <dbl> <chr> <chr>
##  1      1 1/5/2009     902   7.4   858      777     92        NA <NA>  <NA> 
##  2      1 1/5/2009     906   8     469      478    129        NA <NA>  <NA> 
##  3      1 1/5/2009     910   8.2   548      587     77        NA <NA>  <NA> 
##  4      1 1/5/2009     912   8.2   997      991     63        NA <NA>  <NA> 
##  5      1 1/5/2009     914   7.8   604      601    157        NA <NA>  <NA> 
##  6      1 1/5/2009     915   7.5   803      801    140        NA <NA>  <NA> 
##  7      1 1/5/2009     918   7.6   787      758    154        NA <NA>  <NA> 
##  8      1 1/5/2009     919   7.7   263      265    194        NA <NA>  <NA> 
##  9      1 1/6/2009     703   9.2  1966     7230     70        NA <NA>  <NA> 
## 10      1 1/6/2009     704   9.3  3604     8030     40        NA <NA>  <NA> 
## # ... with 3,153 more rows, and 1 more variable: Comments <chr>

# If somehow read_delim fails to guess the delimeter, you can specify it yourself
read_delim(file.path("RGuideExamples", "WaterInfo_SLS.txt"), delim = "\t") # "\t" is "tab"

## # A tibble: 3,163 x 11
##    Survey Date     Station  Temp TopEC BottomEC Secchi Turbidity Lat   Long 
##     <dbl> <chr>      <dbl> <dbl> <dbl>    <dbl>  <dbl>     <dbl> <chr> <chr>
##  1      1 1/5/2009     902   7.4   858      777     92        NA <NA>  <NA> 
##  2      1 1/5/2009     906   8     469      478    129        NA <NA>  <NA> 
##  3      1 1/5/2009     910   8.2   548      587     77        NA <NA>  <NA> 
##  4      1 1/5/2009     912   8.2   997      991     63        NA <NA>  <NA> 
##  5      1 1/5/2009     914   7.8   604      601    157        NA <NA>  <NA> 
##  6      1 1/5/2009     915   7.5   803      801    140        NA <NA>  <NA> 
##  7      1 1/5/2009     918   7.6   787      758    154        NA <NA>  <NA> 
##  8      1 1/5/2009     919   7.7   263      265    194        NA <NA>  <NA> 
##  9      1 1/6/2009     703   9.2  1966     7230     70        NA <NA>  <NA> 
## 10      1 1/6/2009     704   9.3  3604     8030     40        NA <NA>  <NA> 
## # ... with 3,153 more rows, and 1 more variable: Comments <chr>
…
The overall process is: 1) load the odbc package to tap into the Access driver, 2) load the DBI package to connect to Access and to manipulate the available database, 3) find the tables you want, 4) pull the tables you want, and 5) disconnect from Access after you have all the data you need.

Bit-version, 32- vs 64-bit

Connecting Access to R requires both programs to be in the same architecture. This involves the driver used to connect the two programs together. If you have a 64-bit version of Access, generally, the 64-bit driver is available to be used. In this case, 64-bit R is used. The same line of thinking is applicable to 32-bit Access. As of right now, CDFW computers have 32-bit Microsoft Office installed and you must go through IT to get the 64-bit version. Therefore, this connection will require a 32-bit R.

Generally, most R users prefer to stay in 64-bit R. This is because this architecture handles more memory than the 32-bit version. Available memory is important in various analyses which do require a large amount of memory to run. Specific to the Smelt Larval Survey publication system, there is code to allow the user to stay in 64-bit R and still connect to a 32-bit Access. It involves using a terminal command to open the 32-bit R as a separate instance. The code for this is finnicky and users can refer to the readAccess.R script to see how it is done.

Reading from RDS or RDA files

R has two native formats for saving and reading data: RDS and RDA. An RDS file contains just one object from your environment while an RDA contains your entire environment. The main advantages of these formats over non-R formats are: 1) your dataset can be compressed to save on disk space, 2) fast read speed into R, 3) any R object can be saved and not just data tables, and very importantly 4) the data structures for your object(s) are preserved. To read these objects:

readRDS(file.path("RGuideExamples", "TowInfo.rds"))

## # A tibble: 3,163 x 13
##    Date       Station   Tow Time                 Tide BottomDepth CableOut
##    <date>       <dbl> <dbl> <dttm>              <dbl>       <dbl>    <dbl>
##  1 2009-01-05     902     1 1899-12-30 02:12:00     4          26      110
##  2 2009-01-05     906     1 1899-12-30 06:23:00     2          39      140
##  3 2009-01-05     910     1 1899-12-30 04:49:00     4          40      155
##  4 2009-01-05     912     1 1899-12-30 05:26:00     4          36      140
##  5 2009-01-05     914     1 1899-12-30 04:08:00     4          35      110
##  6 2009-01-05     915     1 1899-12-30 02:41:00     4          21       90
##  7 2009-01-05     918     1 1899-12-30 03:20:00     4          25       90
##  8 2009-01-05     919     1 1899-12-30 06:54:00     2          17       75
##  9 2009-01-06     703     1 1899-12-30 04:56:00     2          10       60
## 10 2009-01-06     704     1 1899-12-30 04:40:00     2          32      125
## # ... with 3,153 more rows, and 6 more variables: Duration <dbl>,
## #   NetMeterSerial <dbl>, NetMeterStart <dbl>, NetMeterEnd <dbl>,
## #   NetMeterCheck <dbl>, Comments <chr>
…
